{
    "0":
    {
        "x": "-296.776611328125",
        "y": "468.6848754882812",
        "z": "1925.836303710938",
        "confidence": "1"
    },
    "-15":
    {
        "x": "0.1125652",
        "y": "-0.03978239",
        "z": "-0.00571454",
        "w": "0.9928313",
        "confidence": "1"
    },
    "4":
    {
        "x": "-455.0977783203125",
        "y": "131.5010528564453",
        "z": "1890.654052734375",
        "confidence": "1"
    },
    "-11":
    {
        "x": "0.280055",
        "y": "-0.3811087",
        "z": "0.5360122",
        "w": "0.699297",
        "confidence": "1"
    },
    "2":
    {
        "x": "-405.7790832519531",
        "y": "307.722412109375",
        "z": "1879.920166015625",
        "confidence": "1"
    },
    "-13":
    {
        "x": "-0.02443256",
        "y": "0.01822986",
        "z": "0.6042706",
        "w": "0.7961957",
        "confidence": "1"
    },
    "6":
    {
        "x": "-481.6098327636719",
        "y": "26.11628723144531",
        "z": "1726.888793945312",
        "confidence": "1"
    },
    "-9":
    {
        "x": "0",
        "y": "0",
        "z": "0",
        "w": "0",
        "confidence": "0"
    },
    "13":
    {
        "x": "-368.3185424804688",
        "y": "-548.9327392578125",
        "z": "1622.432739257812",
        "confidence": "1"
    },
    "-2":
    {
        "x": "0",
        "y": "0",
        "z": "0",
        "w": "0",
        "confidence": "0"
    },
    "11":
    {
        "x": "-347.5719604492188",
        "y": "-269.4974975585938",
        "z": "1703.068481445312",
        "confidence": "1"
    },
    "-4":
    {
        "x": "-0.03724007",
        "y": "0.8622197",
        "z": "0.1394004",
        "w": "-0.4855491",
        "confidence": "1"
    },
    "9":
    {
        "x": "-373.3946228027344",
        "y": "18.62477111816406",
        "z": "1801.817749023438",
        "confidence": "1"
    },
    "-6":
    {
        "x": "-0.1158662",
        "y": "0.8661348",
        "z": "0.1235921",
        "w": "-0.4702238",
        "confidence": "1"
    },
    "8":
    {
        "x": "-299.7851867675781",
        "y": "159.6978759765625",
        "z": "1847.450927734375",
        "confidence": "1"
    },
    "-7":
    {
        "x": "0.1361231",
        "y": "-0.03884214",
        "z": "-0.01414273",
        "w": "0.9898293",
        "confidence": "1"
    },
    "5":
    {
        "x": "-154.7378082275391",
        "y": "216.0503845214844",
        "z": "1785.699584960938",
        "confidence": "1"
    },
    "-10":
    {
        "x": "0.6608949",
        "y": "0.6029431",
        "z": "-0.2104434",
        "w": "0.3941967",
        "confidence": "1"
    },
    "3":
    {
        "x": "-188.5845489501953",
        "y": "299.3160400390625",
        "z": "1895.83935546875",
        "confidence": "1"
    },
    "-12":
    {
        "x": "0.3959918",
        "y": "0.2381107",
        "z": "-0.5694374",
        "w": "0.6798785",
        "confidence": "1"
    },
    "7":
    {
        "x": "-124.5798645019531",
        "y": "319.2868041992188",
        "z": "1662.428344726562",
        "confidence": "1"
    },
    "-8":
    {
        "x": "0",
        "y": "0",
        "z": "0",
        "w": "0",
        "confidence": "0"
    },
    "14":
    {
        "x": "-146.5250244140625",
        "y": "-521.6921997070312",
        "z": "1609.602661132812",
        "confidence": "1"
    },
    "-1":
    {
        "x": "0",
        "y": "0",
        "z": "0",
        "w": "0",
        "confidence": "0"
    },
    "12":
    {
        "x": "-199.9376831054688",
        "y": "-236.4881744384766",
        "z": "1638.623168945312",
        "confidence": "1"
    },
    "-3":
    {
        "x": "0.04541955",
        "y": "0.04917813",
        "z": "0.09445102",
        "w": "0.9932762",
        "confidence": "1"
    },
    "10":
    {
        "x": "-231.3824920654297",
        "y": "13.12828063964844",
        "z": "1812.226440429688",
        "confidence": "1"
    },
    "-5":
    {
        "x": "0.2931371",
        "y": "0.07066161",
        "z": "0.07591217",
        "w": "0.9504288",
        "confidence": "1"
    },
    "1":
    {
        "x": "-297.1818237304688",
        "y": "303.5192260742188",
        "z": "1887.879760742188",
        "confidence": "1"
    },
    "-14":
    {
        "x": "0.1125652",
        "y": "-0.03978239",
        "z": "-0.00571454",
        "w": "0.9928313",
        "confidence": "1"
    }
}
