{
    "0":
    {
        "x": "-269.9351196289062",
        "y": "462.8318786621094",
        "z": "1897.821899414062",
        "confidence": "1"
    },
    "-15":
    {
        "x": "0.1059108",
        "y": "-0.07767379",
        "z": "-0.02325847",
        "w": "0.9910643",
        "confidence": "1"
    },
    "4":
    {
        "x": "-485.2813110351562",
        "y": "252.0991821289062",
        "z": "1968.188110351562",
        "confidence": "1"
    },
    "-11":
    {
        "x": "0.3435258",
        "y": "-0.1410514",
        "z": "-0.415453",
        "w": "0.8303573",
        "confidence": "1"
    },
    "2":
    {
        "x": "-382.4087524414062",
        "y": "306.9891052246094",
        "z": "1846.050170898438",
        "confidence": "1"
    },
    "-13":
    {
        "x": "0.5310583",
        "y": "0.4322045",
        "z": "-0.09267346",
        "w": "0.7229025",
        "confidence": "1"
    },
    "6":
    {
        "x": "-606.5575561523438",
        "y": "407.2637939453125",
        "z": "1978.282836914062",
        "confidence": "1"
    },
    "-9":
    {
        "x": "0",
        "y": "0",
        "z": "0",
        "w": "0",
        "confidence": "0"
    },
    "13":
    {
        "x": "-408.0334777832031",
        "y": "-556.999755859375",
        "z": "1619.0703125",
        "confidence": "1"
    },
    "-2":
    {
        "x": "0",
        "y": "0",
        "z": "0",
        "w": "0",
        "confidence": "0"
    },
    "11":
    {
        "x": "-362.9498596191406",
        "y": "-278.0579528808594",
        "z": "1690.07568359375",
        "confidence": "1"
    },
    "-4":
    {
        "x": "0.09119909",
        "y": "-0.3204707",
        "z": "-0.1138921",
        "w": "0.9359539",
        "confidence": "1"
    },
    "9":
    {
        "x": "-354.574462890625",
        "y": "16.87423706054688",
        "z": "1769.9443359375",
        "confidence": "1"
    },
    "-6":
    {
        "x": "0.1198588",
        "y": "-0.3271577",
        "z": "-0.0565531",
        "w": "0.93563",
        "confidence": "1"
    },
    "8":
    {
        "x": "-279.5868530273438",
        "y": "155.294189453125",
        "z": "1821.17724609375",
        "confidence": "1"
    },
    "-7":
    {
        "x": "0.1362227",
        "y": "-0.07773309",
        "z": "-0.02657474",
        "w": "0.9872661",
        "confidence": "1"
    },
    "5":
    {
        "x": "-107.51220703125",
        "y": "129.5184173583984",
        "z": "1726.528564453125",
        "confidence": "1"
    },
    "-10":
    {
        "x": "0.1559064",
        "y": "0.4393997",
        "z": "-0.4283491",
        "w": "0.7740401",
        "confidence": "1"
    },
    "3":
    {
        "x": "-167.4124298095703",
        "y": "290.9378356933594",
        "z": "1877.922973632812",
        "confidence": "1"
    },
    "-12":
    {
        "x": "0.08096521",
        "y": "0.3683997",
        "z": "-0.4833724",
        "w": "0.7899857",
        "confidence": "1"
    },
    "7":
    {
        "x": "-58.32964324951172",
        "y": "24.71310424804688",
        "z": "1564.414428710938",
        "confidence": "1"
    },
    "-8":
    {
        "x": "0",
        "y": "0",
        "z": "0",
        "w": "0",
        "confidence": "0"
    },
    "14":
    {
        "x": "-133.0391082763672",
        "y": "-522.3260498046875",
        "z": "1678.447021484375",
        "confidence": "1"
    },
    "-1":
    {
        "x": "0",
        "y": "0",
        "z": "0",
        "w": "0",
        "confidence": "0"
    },
    "12":
    {
        "x": "-190.1095733642578",
        "y": "-246.0396118164062",
        "z": "1620.6875",
        "confidence": "1"
    },
    "-3":
    {
        "x": "-0.1064905",
        "y": "0.05253234",
        "z": "0.09459282",
        "w": "0.988409",
        "confidence": "1"
    },
    "10":
    {
        "x": "-213.9517822265625",
        "y": "6.375579833984375",
        "z": "1790.79150390625",
        "confidence": "1"
    },
    "-5":
    {
        "x": "0.2866795",
        "y": "0.0852118",
        "z": "0.06668133",
        "w": "0.9518967",
        "confidence": "1"
    },
    "1":
    {
        "x": "-274.9105834960938",
        "y": "298.9634704589844",
        "z": "1861.986572265625",
        "confidence": "1"
    },
    "-14":
    {
        "x": "0.1059108",
        "y": "-0.07767379",
        "z": "-0.02325847",
        "w": "0.9910643",
        "confidence": "1"
    }
}
