{
    "0":
    {
        "x": "-354.6092224121094",
        "y": "232.6543121337891",
        "z": "2704.066650390625",
        "confidence": "1"
    },
    "-15":
    {
        "x": "0.08465642",
        "y": "-0.2211919",
        "z": "-0.05783724",
        "w": "0.9698256",
        "confidence": "1"
    },
    "4":
    {
        "x": "-605.4835815429688",
        "y": "140.5371856689453",
        "z": "2584.616943359375",
        "confidence": "1"
    },
    "-11":
    {
        "x": "-0.3179093",
        "y": "0.7301615",
        "z": "0.550185",
        "w": "-0.2511857",
        "confidence": "1"
    },
    "2":
    {
        "x": "-467.4198913574219",
        "y": "71.66515350341797",
        "z": "2625.306884765625",
        "confidence": "1"
    },
    "-13":
    {
        "x": "0.6299507",
        "y": "-0.2458446",
        "z": "-0.08325876",
        "w": "0.7319771",
        "confidence": "1"
    },
    "6":
    {
        "x": "-479.1354370117188",
        "y": "279.85888671875",
        "z": "2581.420166015625",
        "confidence": "1"
    },
    "-9":
    {
        "x": "0",
        "y": "0",
        "z": "0",
        "w": "0",
        "confidence": "0"
    },
    "13":
    {
        "x": "-426.0048828125",
        "y": "-622.1680908203125",
        "z": "2392.926513671875",
        "confidence": "1"
    },
    "-2":
    {
        "x": "0",
        "y": "0",
        "z": "0",
        "w": "0",
        "confidence": "0"
    },
    "11":
    {
        "x": "-392.9522399902344",
        "y": "-486.1202697753906",
        "z": "2429.698974609375",
        "confidence": "1"
    },
    "-4":
    {
        "x": "0.04692638",
        "y": "-0.5269713",
        "z": "-0.1669432",
        "w": "0.8320031",
        "confidence": "1"
    },
    "9":
    {
        "x": "-414.6762084960938",
        "y": "-179.38671875",
        "z": "2460.693359375",
        "confidence": "1"
    },
    "-6":
    {
        "x": "0.06127115",
        "y": "-0.5310447",
        "z": "0.003085379",
        "w": "0.8451201",
        "confidence": "1"
    },
    "8":
    {
        "x": "-359.4375610351562",
        "y": "-73.81874847412109",
        "z": "2578.4560546875",
        "confidence": "1"
    },
    "-7":
    {
        "x": "0.311285",
        "y": "-0.2251857",
        "z": "-0.04264795",
        "w": "0.9222654",
        "confidence": "1"
    },
    "5":
    {
        "x": "-180.3118591308594",
        "y": "-103.2608947753906",
        "z": "2608.33447265625",
        "confidence": "1"
    },
    "-10":
    {
        "x": "0.2009404",
        "y": "0.3522014",
        "z": "-0.5163618",
        "w": "0.7542862",
        "confidence": "1"
    },
    "3":
    {
        "x": "-270.0621643066406",
        "y": "23.40103912353516",
        "z": "2711.049560546875",
        "confidence": "1"
    },
    "-12":
    {
        "x": "0.1853943",
        "y": "0.2278647",
        "z": "-0.4549694",
        "w": "0.8406601",
        "confidence": "1"
    },
    "7":
    {
        "x": "-138.1150360107422",
        "y": "-226.27685546875",
        "z": "2465.747314453125",
        "confidence": "1"
    },
    "-8":
    {
        "x": "0",
        "y": "0",
        "z": "0",
        "w": "0",
        "confidence": "0"
    },
    "14":
    {
        "x": "-214.5135498046875",
        "y": "-630.279541015625",
        "z": "2355.822265625",
        "confidence": "1"
    },
    "-1":
    {
        "x": "0",
        "y": "0",
        "z": "0",
        "w": "0",
        "confidence": "0"
    },
    "12":
    {
        "x": "-255.3020935058594",
        "y": "-500.531005859375",
        "z": "2413.0419921875",
        "confidence": "1"
    },
    "-3":
    {
        "x": "0.1665022",
        "y": "0.1989364",
        "z": "0.1805976",
        "w": "0.9487285",
        "confidence": "1"
    },
    "10":
    {
        "x": "-285.5919799804688",
        "y": "-210.9544677734375",
        "z": "2516.7744140625",
        "confidence": "1"
    },
    "-5":
    {
        "x": "0.1555257",
        "y": "0.2149492",
        "z": "0.08583439",
        "w": "0.9603338",
        "confidence": "1"
    },
    "1":
    {
        "x": "-368.7410278320312",
        "y": "47.53309631347656",
        "z": "2668.17822265625",
        "confidence": "1"
    },
    "-14":
    {
        "x": "0.08465642",
        "y": "-0.2211919",
        "z": "-0.05783724",
        "w": "0.9698256",
        "confidence": "1"
    }
}
